{ 
   "placements":[  
      {  
         "message":"If you like this, you might be into these",
         "items":[  
            {  
               "id":"029148",
               "name":"Woodblock Play Suit",
               "linkURL":"http://www.warehouse.co.uk/gb/just-arrived/all/woodblock-play-suit/029148.html",
               "imageURL":"https://www.warehouse.co.uk/dw/image/v2/AAXE_PRD/on/demandware.static/-/Sites-WAREHOUSE/default/dw0f93fcd4/images/hi-res/warehouse_02914899_2.jpg",
               "price":"46.00"
            },
            {  
               "id":"0294526806",
               "name":"Smock Dress",
               "linkURL":"http://www.warehouse.co.uk/gb/just-arrived/all/smock-dress/0294526806.html",
               "imageURL":"https://www.warehouse.co.uk/dw/image/v2/AAXE_PRD/on/demandware.static/-/Sites-WAREHOUSE/default/dwc9d5ea05/images/hi-res/warehouse_02945268_2.jpg",
               "price":"39.00"
            },
            {  
               "id":"0297180006",
               "name":"Cheetah Print Cross Back Cami",
               "linkURL":"https://www.warehouse-london.com/au/clothing/tops/cheetah-print-cross-back-cami/031817.html",
               "imageURL":"https://www.warehouse-london.com/dw/image/v2/AAXE_PRD/on/demandware.static/-/Sites-WAREHOUSE/default/dwe57e7331/images/hi-res/warehouse_03181705_2.jpg",
               "price":"22.00"
            },
            {  
               "id":"0298473606",
               "name":"Asymmetric Wrap Cami Dress",
               "linkURL":"http://www.warehouse.co.uk/gb/just-arrived/all/asymmetric-wrap-cami-dress/0298473606.html",
               "imageURL":"https://www.warehouse.co.uk/dw/image/v2/AAXE_PRD/on/demandware.static/-/Sites-WAREHOUSE/default/dw686fea84/images/hi-res/warehouse_02984736_2.jpg",
               "price":"46.00"
            },
            {  
               "id":"0297155306",
               "name":"Stripe Tie Side Top",
               "linkURL":"https://www.warehouse.co.uk/gb/sale/tops/stripe-tie-side-top/031566.html",
               "imageURL":"https://www.warehouse.co.uk/dw/image/v2/AAXE_PRD/on/demandware.static/-/Sites-WAREHOUSE/default/dwbe986d87/images/hi-res/warehouse_03156653_2.jpg",
               "price":"20.00"
            }
         ]
      }
   ]
}